936420 104094 525
395897 949006 525
450589 316649 449
554210 465060 470
388618 687233 509
534606 125310 470
128866 980901 525
187388 471089 449
624450 768884 509
821683 607250 509
72320 456477 449
963749 23079 525
92135 910024 525
704373 346614 509
416538 993449 525
998794 583539 525
982162 32804 525
123413 177964 383
354620 341555 441
990606 924796 507
620921 459821 470
176283 362009 443
239226 687576 509
324417 776042 509
848533 824787 525
58576 364646 443
709820 770751 468
652558 418928 509
275401 780389 509
490558 609928 470
364655 727012 509
781864 594986 509
562015 679094 509
85907 195259 383
747033 462820 509
950528 338158 525
116541 652713 509
369701 807082 509
665362 609386 509
826460 595724 509
854733 766474 525
402652 325359 441
116544 358059 443
809169 750894 468
916682 173415 525
218649 855104 525
332232 727654 509
467212 410356 444
484960 444852 444
532610 173263 470
717478 64513 509
193224 70065 383
98657 502717 449
425705 829225 509
701310 826068 504
408573 522537 470
107877 829551 509
964955 387235 525
768762 948699 525
899673 118950 525
163192 881920 525
964255 548990 525
193896 350663 443
117971 249319 443
884611 883046 370
343846 144718 443
243349 370869 441
525659 654031 509
104582 420428 449
795264 230991 509
869919 194292 525
319127 430026 449
329557 524242 470
708810 783586 468
165744 564799 470
112195 844889 525
314659 152292 443
570553 723643 509
94591 336174 443
411154 322160 449
895977 257296 525
285914 265433 407
272793 662113 509
963651 211116 525
475025 862295 525
136856 823986 509
818352 875987 525
313436 204332 443
799886 819956 450
329710 970890 525
537766 361135 470
143026 516273 470
937585 181560 525
340666 176517 443
970080 962486 414
236288 186232 443
582215 351444 470
515971 326977 470
57716 740276 509
142999 118867 375
93346 452695 449
633850 254061 509
463599 116655 449
877397 725630 525
909255 579860 525
385197 766482 509
804119 715951 468
232760 280372 407
229504 864466 525
980054 920663 507
317455 449387 449
544046 352399 470
111390 529124 470
336914 519376 470
736795 645022 504
980623 930266 507
374815 356002 410
561887 76514 470
387982 273698 441
701117 99582 509
960094 245447 525
674745 736254 504
781116 571781 509
452422 388115 449
633238 790534 504
788888 884920 525
215645 611470 470
444879 141479 449
183233 43332 383
202265 443810 449
168483 619460 470
585687 542675 452
505870 898659 525
106267 81279 354
484665 94731 449
402549 138775 443
218626 771109 509
869641 832345 525
640099 26268 509
239601 988033 525
701155 491141 509
104439 864115 525
595924 761457 509
557648 790691 509
705901 595997 509
971049 375303 525
14013 325970 443
420740 616778 470
933376 441243 525
429327 868123 525
853157 245910 525
501123 94171 449
216628 808704 509
392872 280839 441
615450 172985 470
184589 170202 365
209430 936586 525
993458 719256 525
762417 863513 525
608261 810100 509
722730 147551 509
412682 775422 509
70416 312024 443
712847 245533 509
103880 500542 449
987828 671842 525
944827 90246 525
641381 636551 416
303184 142130 443
549003 719462 509
962594 192255 525
66505 260195 443
522296 283161 470
194560 827727 509
162611 936576 525
278302 589064 470
588994 976498 525
961852 54974 525
853516 726002 525
114717 873110 525
452869 121622 449
100335 437457 449
958407 715927 525
66606 87959 351
446450 371892 449
904065 585273 525
166013 691971 509
139435 363019 443
206310 870224 525
310607 783484 509
407859 707668 509
303664 252676 407
398667 988987 525
723401 586698 509
430950 283014 449
615843 463842 470
644031 499898 509
764601 145408 509
485498 214642 449
342460 903149 525
285407 849675 525
915432 752365 525
397246 298416 441
668561 157066 509
894605 467263 525
251089 347250 441
543892 515221 439
823183 768212 468
661177 278382 509
727208 967960 525
505167 480722 426
703631 921166 525
58510 853202 525
724949 386751 509
406086 209896 443
330612 401032 441
431618 862912 525
811709 419553 509
222905 497086 449
716293 938057 525
401151 770973 509
924508 646711 525
571322 462394 470
977272 301577 525
228164 934828 525
433074 533451 470
746440 65160 509
774531 756573 468
534165 543856 408
789657 188350 509
34039 635333 509
412375 746116 509
20990 69355 340
722612 248077 509
562677 723507 509
178406 912986 525
85010 152323 375
180761 626709 509
216154 820398 509
756549 823746 468
470238 104826 449
485599 117882 449
375873 746552 509
795173 8547 509
354828 450744 449
398338 88075 443
512625 763058 509
962335 179955 525
515527 181648 470
58850 749292 509
897334 704056 525
70171 744067 509
464596 653625 509
3524 749441 509
950293 681810 525
100476 967213 525
703739 300804 509
719074 68678 509
998408 165133 525
213500 411518 449
489559 591376 470
439323 459998 387
460011 481953 444
71985 502596 449
755092 901891 525
142011 922365 525
726741 46783 509
62483 342678 443
81933 235609 443
952632 944652 414
262048 863897 525
245988 132438 443
867491 960682 507
412354 508671 444
685833 106972 509
119899 814799 509
81907 993966 525
317048 89585 443
864777 826000 525
523360 804019 509
259163 106219 443
84443 141972 354
277862 82230 443
268004 913308 525
616911 274487 470
856462 809831 525
176645 61937 383
326127 844285 525
449565 257447 449
793749 848803 525
309793 969790 525
658333 851540 525
189170 819496 509
269429 998895 525
231423 752602 509
12667 445588 449
778589 279364 509
919135 295989 525
462772 954251 525
277284 247500 407
