1 10 20
100 200 125
201 210 89
900 1000 174
110 1111 179
1111 110 179
43243 23434 324
12344 66565 340
34435 45566 324
3234 494949 449
4232 458458 449
5454 23 238
1 100 119
100 300 128
600 400 142
1200 600 182
601 1201 182
4324 567 238
1205 5063 238
6079 493 238
20977 5395 279
9999 5555 262
999999 999998 259
54542 324960 443
