151205 311340 443
356329 29398 443
548210 850541 525
280039 671556 509
278067 978769 525
850587 767858 525
280882 393832 441
932020 517878 525
106251 905321 525
568507 233 470
834114 418584 509
613041 446884 470
703089 597392 509
358036 991513 525
361946 139954 443
237248 826959 509
340571 517418 470
200691 211003 373
388735 159131 443
939049 774840 525
844401 107367 525
853478 779044 525
382475 306396 441
803026 732182 468
927180 692094 525
489790 680511 509
607848 423149 470
936133 980764 507
804986 928179 525
892621 922197 476
706773 984364 525
380333 974965 525
641208 247762 509
283496 485959 449
251551 74276 443
446616 156233 449
954294 218099 525
435366 382672 449
316969 474697 449
296246 802168 509
268246 730550 509
76511 901253 525
922724 387256 525
480791 814299 509
251821 45062 443
280430 473686 449
812119 754617 468
422385 881159 525
213952 605080 470
880815 931596 476
179607 11646 383
366552 631691 509
876936 604522 525
481217 992394 525
628559 771107 504
896451 982510 507
671854 145542 509
16964 125455 354
652153 932270 525
960653 215028 525
366799 232382 441
905626 492336 525
685987 237581 509
915313 93656 525
306808 665007 509
169834 827231 509
631659 404252 509
322701 208401 443
433258 682304 509
882200 232744 525
95683 102815 341
567007 974542 525
642199 566050 509
21262 853296 525
637613 986881 525
91147 715515 509
951458 157327 525
516982 957751 525
458942 241437 449
827346 338428 509
144483 625164 470
93885 947476 525
362399 239347 441
220571 30191 386
65568 176104 383
594257 725629 509
650311 564207 509
266797 312556 407
934997 23293 525
860451 962494 507
886786 68327 525
577715 324805 470
391468 250796 441
223846 323198 443
290092 970011 525
465974 423816 444
184581 374883 443
11085 741375 509
825014 875701 525
84774 195834 383
578479 904407 525
530192 809117 509
706080 661384 504
230993 480155 449
411820 656780 509
609191 158219 470
485180 943827 525
107114 228966 386
697073 524426 509
7245 208283 383
101873 307453 443
257667 262351 345
743907 900391 525
901118 164980 525
609077 112024 470
574226 970053 525
201754 191553 360
667384 283163 509
735186 965087 525
685167 47535 509
292065 741186 509
186685 529133 470
675617 119737 509
952788 75377 525
540147 336668 470
284815 989472 525
820049 918582 525
577115 620902 447
56831 143373 375
290227 268935 407
531680 986702 525
531395 834724 509
102437 361370 443
767022 571277 509
541536 704935 509
676075 309885 509
936823 455764 525
199306 827446 509
749299 809038 468
419797 582586 470
513336 144088 470
278289 644771 509
795343 128762 509
884196 569888 525
638367 374856 509
832464 217484 509
829307 279629 509
372829 900076 525
22677 759893 509
727190 811013 468
429839 759380 509
499305 12120 449
710258 458230 509
114162 371451 443
39352 661124 509
969233 381078 525
647427 267119 509
81975 430838 449
959217 135805 525
975872 530001 525
13895 211789 383
92794 349911 443
872138 974280 507
382917 705137 509
334124 539558 470
351250 7576 443
620003 201434 470
727245 123797 509
660310 750236 504
152599 57617 375
242289 453585 449
214892 499736 449
569049 59288 470
468388 879662 525
579513 99507 470
545813 534350 408
400761 377872 436
470101 738811 509
44496 192948 383
816221 312773 509
897904 907075 445
109833 501787 449
361248 109294 443
219452 216711 342
407720 830969 509
547360 544202 452
874661 160743 525
599435 730388 509
785788 607237 509
9341 823904 509
103083 916049 525
309894 284330 389
658427 623429 509
772996 372558 509
664082 608579 509
517514 441150 470
726693 452894 509
23773 50208 324
422346 998146 525
798744 729154 468
370731 625986 470
101423 577147 470
57623 853372 525
877392 187103 525
324210 383275 441
221605 382046 443
794509 968137 525
988470 577529 525
255888 676959 509
484588 122018 449
518292 525994 439
317680 693552 509
354253 238699 441
606066 219644 470
346980 647692 509
491462 29083 449
100003 736874 509
946984 520183 525
273162 524227 470
310368 514636 470
